<svg xmlns="http://www.w3.org/2000/svg" width="20.326" height="23.313" viewBox="0 0 20.326 23.313">
  <path id="Icon_awesome-shopping-bag" data-name="Icon awesome-shopping-bag" d="M14.792,6.816V5.453a5.379,5.379,0,1,0-10.758,0V6.816H1.207L0,18.4a3.385,3.385,0,0,0,3.362,3.408h12.1A3.385,3.385,0,0,0,18.826,18.4l-1.4-11.588ZM5.068,5.453A4.078,4.078,0,0,1,9.413,1.132a4.289,4.289,0,0,1,4.438,4.321V6.816H5.068Zm8.379,5.112a1.023,1.023,0,1,1,1.009-1.022A1.016,1.016,0,0,1,13.447,10.565Zm-8.068,0A1.023,1.023,0,1,1,6.387,9.543,1.016,1.016,0,0,1,5.379,10.565Z" transform="translate(0.75 0.75)" fill="none" stroke="#000" stroke-width="1.5"/>
</svg>
