<?xml version="1.0" encoding="iso-8859-1"?>
<!-- Generator: Adobe Illustrator 18.1.1, SVG Export Plug-In . SVG Version: 6.00 Build 0)  -->
<svg version="1.1" id="Capa_1" xmlns="http://www.w3.org/2000/svg" xmlns:xlink="http://www.w3.org/1999/xlink" x="0px" y="0px"
	 viewBox="0 0 325.505 325.505" style="enable-background:new 0 0 325.505 325.505;" xml:space="preserve">
<g>
	<g>
		<path style="fill:#ffc107;" d="M289.815,114.943c-5.803-0.451-11.803-0.908-17.41-1.583c-3.084-0.37-6.293-0.729-9.54-1.099
			c-16.589-1.86-37.236-4.177-43.431-8.681c-6.026-4.378-14.995-23.045-22.202-38.046c-1.735-3.612-3.454-7.185-5.14-10.606
			c-2.72-5.521-5.33-11.471-7.859-17.231c-8.942-20.38-13.587-30.176-21.479-30.176c-7.892,0-12.542,9.796-21.484,30.176
			c-2.524,5.76-5.134,11.71-7.859,17.231c-1.686,3.421-3.405,7-5.14,10.606c-7.207,15.001-16.176,33.668-22.202,38.046
			c-6.195,4.504-26.842,6.821-43.431,8.681c-3.253,0.364-6.456,0.723-9.54,1.099c-5.608,0.674-11.607,1.131-17.41,1.583
			c-19.668,1.523-32.662,2.524-35.261,10.519c-2.42,7.452,5.586,15.137,22.469,30.432c4.928,4.465,10.024,9.083,14.691,13.701
			c2.991,2.959,6.124,6.005,9.284,9.056c12.238,11.857,27.462,26.608,29.741,33.624c1.751,5.385,1.904,11.096,0.299,16.078
			l-16.872,70.583c-3.394,10.438-0.571,15.197,2.393,17.351c1.556,1.131,3.465,1.697,5.673,1.697c6.065,0,14.446-4.291,27.62-11.292
			c5.624-2.986,11.438-6.075,17.062-8.675c4.221-1.947,8.637-4.085,13.076-6.239c13.989-6.777,29.844-14.457,36.893-14.457
			c7.049,0,22.904,7.68,36.893,14.457c4.438,2.154,8.855,4.291,13.076,6.239c5.624,2.6,11.438,5.684,17.062,8.675
			c13.173,7,21.555,11.292,27.62,11.292c2.214,0,4.123-0.571,5.673-1.697c2.964-2.154,5.782-6.913,2.507-16.937l-17.106-71.41
			c-1.485-4.569-1.338-10.28,0.419-15.665c2.279-7.016,17.508-21.767,29.741-33.624c3.155-3.057,6.293-6.097,9.284-9.056
			c4.661-4.612,9.758-9.236,14.691-13.701c16.883-15.295,24.889-22.985,22.469-30.432
			C322.482,117.472,309.488,116.466,289.815,114.943z M295.303,147.833c-5.02,4.547-10.204,9.246-15.039,14.033
			c-2.959,2.932-6.07,5.945-9.197,8.969c-15.121,14.653-29.404,28.49-32.52,38.073c-2.48,7.631-2.627,15.583-0.533,21.974
			l17.106,71.409c0.696,2.154,0.952,3.677,1.012,4.656c-4.427-0.925-13.674-5.836-21.245-9.861
			c-5.755-3.057-11.705-6.222-17.601-8.942c-4.161-1.925-8.518-4.036-12.896-6.152c-16.502-7.995-32.09-15.545-41.636-15.545
			c-9.546,0-25.134,7.549-41.636,15.545c-4.378,2.121-8.735,4.232-12.901,6.152c-5.896,2.72-11.846,5.885-17.601,8.942
			c-7.571,4.025-16.807,8.936-21.24,9.861c0.071-1.017,0.343-2.654,1.12-5.069l16.872-70.583c2.214-6.804,2.061-14.756-0.419-22.387
			c-3.117-9.589-17.4-23.426-32.52-38.073c-3.127-3.03-6.233-6.037-9.197-8.969c-4.835-4.786-10.024-9.486-15.039-14.033
			c-6.957-6.298-16.192-14.669-18.71-18.759c4.406-1.692,16.633-2.632,25.041-3.285c5.912-0.457,12.031-0.93,17.867-1.632
			c3.057-0.364,6.239-0.723,9.459-1.082c20.619-2.312,40.091-4.498,48.614-10.693c8.251-5.999,16.682-23.551,25.613-42.136
			c1.719-3.573,3.421-7.12,5.091-10.508c2.828-5.738,5.488-11.803,8.061-17.672c3.65-8.322,8.501-19.379,11.52-22.937
			c3.019,3.557,7.87,14.615,11.52,22.937c2.573,5.869,5.232,11.933,8.061,17.672c1.67,3.389,3.372,6.929,5.091,10.508
			c8.931,18.585,17.361,36.143,25.613,42.136c8.523,6.195,27.995,8.382,48.614,10.693c3.22,0.359,6.402,0.718,9.459,1.082
			c5.836,0.702,11.955,1.175,17.867,1.632c8.409,0.653,20.63,1.594,25.036,3.285C311.495,133.164,302.259,141.535,295.303,147.833z"
			/>
	</g>
</g>
<g>
</g>
<g>
</g>
<g>
</g>
<g>
</g>
<g>
</g>
<g>
</g>
<g>
</g>
<g>
</g>
<g>
</g>
<g>
</g>
<g>
</g>
<g>
</g>
<g>
</g>
<g>
</g>
<g>
</g>
</svg>
